122.205.95.14:80
203.196.97.44:80
85.142.98.130:8080
203.124.152.170:80
89.188.136.116:80
212.26.44.98:80
218.249.83.87:8080
59.148.233.57:80
115.78.135.30:80
121.97.81.153:8080
124.207.43.205:8008
125.75.204.22:8080
190.147.197.46:8080
190.198.47.134:8080
216.120.36.194:80
218.210.199.252:3128
59.44.204.198:80
79.127.144.2:8080
122.224.148.5:80
123.242.153.115:80
124.237.121.6:80
163.29.38.221:8080
189.84.126.170:8080
203.92.44.228:8080
220.227.100.59:443
80.14.199.217:80
112.216.50.242:80
148.235.153.178:8080
173.190.112.146:8080
163.29.138.21:8888
201.232.78.182:8080
200.11.138.106:8080
203.198.174.74:80
211.23.82.90:80
202.129.58.68:80
58.246.200.114:80
220.227.100.59:8081
60.250.33.239:8080
60.28.179.32:80
119.46.68.228:80
12.150.110.180:8080
121.202.130.40:3128
123.242.153.114:3128
123.242.153.114:80
123.242.153.115:3128
190.90.209.196:8080
213.125.24.236:8080
209.67.234.246:80
41.190.16.17:8080
76.246.207.215:80
77.246.49.202:3128
78.186.126.244:8086
75.71.12.170:8080
85.214.149.158:80
89.253.113.228:80
110.171.0.109:3128
180.245.254.56:8080
184.22.251.74:3128
205.129.191.162:80
203.172.138.38:8080
209.226.31.245:80
221.12.61.214:8080
79.161.190.54:8080
64.76.2.230:80
91.194.246.237:9000
110.171.0.109:80
113.53.252.106:8080
189.52.5.4:80
188.142.49.254:8080
117.239.53.73:80
195.145.22.46:80
196.214.141.221:8080
41.216.192.149:8080
70.38.36.114:3128
91.120.21.169:80
118.182.20.242:8080
186.3.42.2:8080
187.115.68.237:8080
190.145.116.22:80
200.214.72.248:80
200.93.182.18:8080
201.45.71.43:8080
202.99.27.3:8080
70.158.130.208:8080
